                               TAG   v51r3     Date: 10 January 2018
			             -----

    Tydiing up such as removing compiler warnings. Small bug fixes.
    Small tweeking of SMI and USER messages. 
